    1  apt-get upgrade
    2  apt autoremove
    3  sudo apt-get purge openjdk*
    4  sudo add-apt-repository ppa:webupd8team/java
    5  apt update
    6  apt upgrade
    7  sudo apt-get install oracle-java8-installer
    8  sudo apt-get install oracle-java8-set-default
    9  javac -version
   10  mkdir /opt/sts
   11  mv sts-4.2.0.RELEASE/ /opt/sts
   12  gedit /usr/share/applications/STS.desktop
   13  apt install -f
   14  dpkg -i google-chrome-stable_current_amd64.deb
   15  sudo apt-get install sublime-text
   16  dpkg -i google-chrome-stable_current_amd64.deb 
   17  sudo add-apt-repository ppa:webupd8team/atom
   18  sudo apt-get update
   19  sudo apt-get install atom
   20  sudo snap install code --classic
   21  sudo apt-get update
   22  sudo apt-get install     apt-transport-https     ca-certificates     curl     gnupg-agent     software-properties-common
   23  sudo add-apt-repository    "deb [arch=amd64] https://download.docker.com/linux/ubuntu \
   24     $(lsb_release -cs) \
   25     stable"
   26  sudo apt-key fingerprint 0EBFCD88
   27  curl -fsSL https://download.docker.com/linux/ubuntu/gpg | sudo apt-key add -
   28  sudo apt-get update
   29  sudo apt install docker-ce
   30  sudo apt install mysql-server
   31  sudo docker run -d --restart=always -p 8080:8080 rancher/server:v1.0.2
   32  docker run hello-world
   33  docker images
   34  sudo apt install maven
   35  ls
   36  dpkg -i smartgit-18_2_7.deb 
   37  mvn -version
   38  sudo apt install -y mongodb
   39  curl -sL https://deb.nodesource.com/setup_11.x | sudo -E bash -
   40  sudo apt-get install -y nodejscurl https://packages.gitlab.com/install/repositories/gitlab/gitlab-ee/script.deb.sh | sudo bash
   41  apt install -f
   42  sudo apt-get install -y nodejs
   43  curl -sS https://packages.gitlab.com/install/repositories/gitlab/gitlab-ce/script.deb.sh | sudo bash
   44  sudo apt install gitlab-ce -y
   45  apt update && apt upgrade -y && apt autoremove
   46  gedit /etc/hostname
   47  gedit /etc/hosts
   48  usermod -l lab10usuario30 iesp
   49  cd /var/lib/jenkins
   50  ls /var/lib/ | grep j*
   51  ls /var/lib/ | grep jen*
   52  ls /var/lib/
   53  ls
   54  pwd
   55  cd /home/lab10usuario30/
   56  ls
   57  cd 'Área de Trabalho'/
   58  ls
   59  mv Jenkinsfile ../cursodevops/
   60  cd ..
   61  l
   62  ls
   63  cd cursodevops/
   64  ls
   65  clear
   66  git status
   67  git add .
   68  git status
   69  git commit -m "adicionando o Jenkinsfile"
   70  git push -u origin master
   71  ls
   72  ls website/build/test-site/
   73  ls
   74  ls website/build/test-site/cd ..
   75  clear
   76  l
   77  ls
   78  cat Jenkinsfile
   79  clear
   80  history
   81  cd ..
   82  ls
   83  cd cursodevops/
   84  history > comandos.txt
